[api-updater (non-obsolete-error-filter)] 1/19/2022 2:24:30 PM : Starting /home/runtime/Unity/Hub/Editor/2020.3.26f1/Editor/Data/Tools/ScriptUpdater/APIUpdater.NonObsoleteApiUpdaterDetector.exe
[api-updater (non-obsolete-error-filter)] 
----------------------------------
jit/startup time      : 1445.379ms
moved types parse time: 41ms
candidates parse time : 1ms
C# parse time         : 485ms
candidates check time : 22ms
console write time    : 0ms

[api-updater (non-obsolete-error-filter)] 1/19/2022 3:08:24 PM : Starting /home/runtime/Unity/Hub/Editor/2020.3.26f1/Editor/Data/Tools/ScriptUpdater/APIUpdater.NonObsoleteApiUpdaterDetector.exe
[api-updater (non-obsolete-error-filter)] 
----------------------------------
jit/startup time      : 35.131ms
moved types parse time: 40ms
candidates parse time : 0ms
C# parse time         : 146ms
candidates check time : 24ms
console write time    : 0ms

[api-updater (non-obsolete-error-filter)] 1/19/2022 3:16:14 PM : Starting /home/runtime/Unity/Hub/Editor/2020.3.26f1/Editor/Data/Tools/ScriptUpdater/APIUpdater.NonObsoleteApiUpdaterDetector.exe
[api-updater (non-obsolete-error-filter)] 
----------------------------------
jit/startup time      : 35.023ms
moved types parse time: 37ms
candidates parse time : 0ms
C# parse time         : 172ms
candidates check time : 25ms
console write time    : 0ms

[api-updater (non-obsolete-error-filter)] 1/19/2022 3:53:56 PM : Starting /home/runtime/Unity/Hub/Editor/2020.3.26f1/Editor/Data/Tools/ScriptUpdater/APIUpdater.NonObsoleteApiUpdaterDetector.exe
[api-updater (non-obsolete-error-filter)] 
----------------------------------
jit/startup time      : 48.786ms
moved types parse time: 39ms
candidates parse time : 0ms
C# parse time         : 149ms
candidates check time : 24ms
console write time    : 0ms

[api-updater (non-obsolete-error-filter)] 1/19/2022 3:56:27 PM : Starting /home/runtime/Unity/Hub/Editor/2020.3.26f1/Editor/Data/Tools/ScriptUpdater/APIUpdater.NonObsoleteApiUpdaterDetector.exe
[api-updater (non-obsolete-error-filter)] 
----------------------------------
jit/startup time      : 46.227ms
moved types parse time: 39ms
candidates parse time : 0ms
C# parse time         : 138ms
candidates check time : 22ms
console write time    : 0ms

[api-updater (non-obsolete-error-filter)] 1/19/2022 4:05:52 PM : Starting /home/runtime/Unity/Hub/Editor/2020.3.26f1/Editor/Data/Tools/ScriptUpdater/APIUpdater.NonObsoleteApiUpdaterDetector.exe
[api-updater (non-obsolete-error-filter)] 
----------------------------------
jit/startup time      : 42.598ms
moved types parse time: 38ms
candidates parse time : 0ms
C# parse time         : 154ms
candidates check time : 24ms
console write time    : 0ms

[api-updater (non-obsolete-error-filter)] 1/19/2022 4:17:29 PM : Starting /home/runtime/Unity/Hub/Editor/2020.3.26f1/Editor/Data/Tools/ScriptUpdater/APIUpdater.NonObsoleteApiUpdaterDetector.exe
[api-updater (non-obsolete-error-filter)] 
----------------------------------
jit/startup time      : 39.97ms
moved types parse time: 39ms
candidates parse time : 0ms
C# parse time         : 152ms
candidates check time : 28ms
console write time    : 0ms

[api-updater (non-obsolete-error-filter)] 1/19/2022 4:17:46 PM : Starting /home/runtime/Unity/Hub/Editor/2020.3.26f1/Editor/Data/Tools/ScriptUpdater/APIUpdater.NonObsoleteApiUpdaterDetector.exe
[api-updater (non-obsolete-error-filter)] 
----------------------------------
jit/startup time      : 43.492ms
moved types parse time: 38ms
candidates parse time : 0ms
C# parse time         : 153ms
candidates check time : 28ms
console write time    : 0ms

[api-updater (non-obsolete-error-filter)] 1/19/2022 4:18:28 PM : Starting /home/runtime/Unity/Hub/Editor/2020.3.26f1/Editor/Data/Tools/ScriptUpdater/APIUpdater.NonObsoleteApiUpdaterDetector.exe
[api-updater (non-obsolete-error-filter)] 
----------------------------------
jit/startup time      : 42.798ms
moved types parse time: 38ms
candidates parse time : 1ms
C# parse time         : 159ms
candidates check time : 29ms
console write time    : 0ms

[api-updater (non-obsolete-error-filter)] 1/19/2022 5:52:40 PM : Starting /home/runtime/Unity/Hub/Editor/2020.3.26f1/Editor/Data/Tools/ScriptUpdater/APIUpdater.NonObsoleteApiUpdaterDetector.exe
[api-updater (non-obsolete-error-filter)] 
----------------------------------
jit/startup time      : 203.077ms
moved types parse time: 45ms
candidates parse time : 0ms
C# parse time         : 359ms
candidates check time : 23ms
console write time    : 0ms

[api-updater (non-obsolete-error-filter)] 1/19/2022 9:59:54 PM : Starting /home/runtime/Unity/Hub/Editor/2020.3.26f1/Editor/Data/Tools/ScriptUpdater/APIUpdater.NonObsoleteApiUpdaterDetector.exe
[api-updater (non-obsolete-error-filter)] 
----------------------------------
jit/startup time      : 133.079ms
moved types parse time: 42ms
candidates parse time : 1ms
C# parse time         : 208ms
candidates check time : 28ms
console write time    : 0ms

[api-updater (non-obsolete-error-filter)] 1/19/2022 10:44:52 PM : Starting /home/runtime/Unity/Hub/Editor/2020.3.26f1/Editor/Data/Tools/ScriptUpdater/APIUpdater.NonObsoleteApiUpdaterDetector.exe
[api-updater (non-obsolete-error-filter)] 
----------------------------------
jit/startup time      : 34.27ms
moved types parse time: 40ms
candidates parse time : 0ms
C# parse time         : 154ms
candidates check time : 25ms
console write time    : 0ms

